<?xml version="1.0" encoding="utf-8"?>
<!-- Generator: Adobe Illustrator 18.1.1, SVG Export Plug-In . SVG Version: 6.00 Build 0)  -->
<svg version="1.1" id="Layer_1" xmlns="http://www.w3.org/2000/svg" xmlns:xlink="http://www.w3.org/1999/xlink" x="0px" y="0px"
	 viewBox="0 0 60 60" enable-background="new 0 0 60 60" xml:space="preserve">
<g>
	<path fill="none" stroke="#414141" stroke-width="3" stroke-linejoin="round" stroke-miterlimit="10" d="M56.2,51.1
		c0,2-1.6,3.7-3.7,3.7H6.7c-2,0-3.7-1.6-3.7-3.7v-1.8h53.2V51.1z"/>
	<polygon fill="none" stroke="#414141" stroke-width="3" stroke-linejoin="round" stroke-miterlimit="10" points="50.7,34.6 
		8.5,34.6 3,49.3 56.2,49.3 	"/>
	<path fill="none" stroke="#414141" stroke-width="3" stroke-miterlimit="10" d="M50.7,8.9c0-2-1.6-3.7-3.7-3.7H12.2
		c-2,0-3.7,1.6-3.7,3.7v25.7h42.2V8.9z"/>
	<line fill="none" stroke="#414141" stroke-width="3" stroke-miterlimit="10" x1="20.7" y1="44.4" x2="38.5" y2="44.4"/>
</g>
</svg>
