<?xml version="1.0" encoding="utf-8"?>
<!-- Generator: Adobe Illustrator 18.0.0, SVG Export Plug-In . SVG Version: 6.00 Build 0)  -->
<!DOCTYPE svg PUBLIC "-//W3C//DTD SVG 1.1//EN" "http://www.w3.org/Graphics/SVG/1.1/DTD/svg11.dtd">
<svg version="1.1" id="Layer_1" xmlns="http://www.w3.org/2000/svg" xmlns:xlink="http://www.w3.org/1999/xlink" x="0px" y="0px"
	 viewBox="0 0 60 60" enable-background="new 0 0 60 60" xml:space="preserve">
<g display="none">
	<path display="inline" fill="none" stroke="#424242" stroke-width="3" stroke-miterlimit="10" d="M7.8,39.2v-24h16.8
		c0,0,3.8,0,3.8,3.8s0,29.5,0,29.5H17.4"/>
	
		<line display="inline" fill="none" stroke="#424242" stroke-width="3" stroke-miterlimit="10" x1="34.4" y1="40.3" x2="34.4" y2="7.5"/>
	
		<line display="inline" fill="none" stroke="#424242" stroke-width="3" stroke-miterlimit="10" x1="34.4" y1="33.4" x2="50.5" y2="33.4"/>
	<circle display="inline" fill="none" stroke="#424242" stroke-width="3" stroke-miterlimit="10" cx="7.9" cy="48.9" r="5.5"/>
	<circle display="inline" fill="none" stroke="#424242" stroke-width="3" stroke-miterlimit="10" cx="39.2" cy="48.9" r="5.5"/>
	
		<rect x="40.2" y="15.2" display="inline" fill="none" stroke="#424242" stroke-width="3" stroke-miterlimit="10" width="17.4" height="12.4"/>
</g>
<g display="none">
	<path display="inline" fill="none" stroke="#424242" stroke-width="3" stroke-miterlimit="10" d="M24.4,23v7.7c0,0,0.4,2,2.6,2
		s2.9,0,2.9,0"/>
	<path display="inline" fill="none" stroke="#424242" stroke-width="3" stroke-miterlimit="10" d="M35.4,23v7.7c0,0-0.4,2-2.6,2
		s-2.9,0-2.9,0v22.8"/>
	
		<line display="inline" fill="none" stroke="#424242" stroke-width="3" stroke-miterlimit="10" x1="29.9" y1="23" x2="29.9" y2="29.3"/>
	<path display="inline" fill="none" stroke="#424242" stroke-width="3" stroke-miterlimit="10" d="M21.6,25c0,0-3.2,0.2-5,0.7
		c-1.8,0.6-5.3,1-6.8-2.6c-2.1-5.2,3.7-7,3.7-7s5-2.4,16.4-2.4"/>
	<path display="inline" fill="none" stroke="#424242" stroke-width="3" stroke-miterlimit="10" d="M38.2,25c0,0,3,0.1,5,0.7
		s5.9,1,6.8-2.6c1.4-5.4-3.7-7-3.7-7s-5-2.4-16.4-2.4"/>
	<polyline display="inline" fill="none" stroke="#424242" stroke-width="3" stroke-miterlimit="10" points="55.5,28.1 54.2,24.1 
		57.9,23 	"/>
	<polyline display="inline" fill="none" stroke="#424242" stroke-width="3" stroke-miterlimit="10" points="4,28.1 5.3,24.1 1.6,23 
			"/>
</g>
<g display="none">
	<path display="inline" fill="none" stroke="#424242" stroke-width="3" stroke-miterlimit="10" d="M32.7,13.6c12.2,0,22,9.8,22,22
		s-9.8,22-22,22s-22-9.8-22-22"/>
	<path display="inline" fill="none" stroke="#424242" stroke-width="3" stroke-miterlimit="10" d="M27.6,28.8c0-12.2,0-12.2,0-22.1
		c-12.2,0-22,9.8-22,22C19.3,28.7,27.6,28.8,27.6,28.8z"/>
</g>
<g display="none">
	<path display="inline" fill="none" stroke="#424242" stroke-width="3" stroke-miterlimit="10" d="M54.7,32c0,3.9-0.9,7.5-2.4,10.8
		c0,3.5,0,11.5,0,11.5s-7.4,0-10.8,0c-3.7,2-7.9,3.2-12.3,3.2c-14,0-25.4-11.4-25.4-25.4S15.3,6.6,29.3,6.6S54.7,18,54.7,32z"/>
	
		<line display="inline" fill="none" stroke="#424242" stroke-width="3" stroke-miterlimit="10" x1="22.8" y1="23.7" x2="36" y2="23.7"/>
	
		<line display="inline" fill="none" stroke="#424242" stroke-width="3" stroke-miterlimit="10" x1="22.8" y1="31.5" x2="36" y2="31.5"/>
	
		<line display="inline" fill="none" stroke="#424242" stroke-width="3" stroke-miterlimit="10" x1="22.8" y1="39.2" x2="36" y2="39.2"/>
</g>
<g display="none">
	<g display="inline">
		<path fill="#424242" d="M45.8,21.5v33.9H11.9V21.5H45.8 M48.8,18.5H8.9v39.9h39.9V18.5L48.8,18.5z"/>
	</g>
	
		<line display="inline" fill="none" stroke="#424242" stroke-width="3" stroke-miterlimit="10" x1="47.8" y1="30.2" x2="9.6" y2="30.2"/>
	<polyline display="inline" fill="none" stroke="#424242" stroke-width="3" stroke-miterlimit="10" points="22,6.4 29,13.4 
		35.9,6.5 	"/>
</g>
<g display="none">
	<path display="inline" fill="#424242" d="M54.4,13.4v21.4c-0.9-0.1-2-0.1-3.1-0.1c-2.1,0-4,0.2-5.6,0.5c-8.7,1.9-13.2,5.3-17.9,8.8
		c-2.2,1.7-4.5,3.4-7.3,5C15.1,52.2,9,52.6,5.8,52.6c-0.1,0-0.2,0-0.3,0V30.3c0.9,0.1,1.9,0.1,2.9,0.1c2.1,0,4-0.2,5.7-0.5
		c6.4-1.2,10.7-4.5,14.8-7.7c2.8-2.2,5.5-4.2,8.7-5.7C43.3,14.1,50.5,13.5,54.4,13.4 M56.6,10.3c-2.9,0-12.7,0.2-20,3.5
		C27.9,17.6,23.4,25.1,13.7,27c-1.7,0.3-3.5,0.4-5.2,0.4c-3.3,0-5.9-0.4-5.9-0.4v28.5c0,0,1.3,0.2,3.3,0.2c3.8,0,10.3-0.6,16.2-4
		c9-5.2,12.2-10.9,24.3-13.5c1.6-0.3,3.4-0.5,5-0.5c3.3,0,6.1,0.5,6.1,0.5V10.3C57.4,10.3,57.1,10.3,56.6,10.3L56.6,10.3z"/>
</g>
<g display="none">
	<path display="inline" fill="none" stroke="#424242" stroke-width="3" stroke-miterlimit="10" d="M15.7,29.7
		c0,0,0.1,14.3,13.4,14.3s13-14.3,13-14.3"/>
	
		<line display="inline" fill="none" stroke="#424242" stroke-width="3" stroke-miterlimit="10" x1="29.2" y1="57.3" x2="29.2" y2="43.9"/>
	
		<line display="inline" fill="none" stroke="#424242" stroke-width="3" stroke-miterlimit="10" x1="21.6" y1="57.3" x2="36.2" y2="57.3"/>
	<g display="inline">
		<path fill="#424242" d="M29,8.5c5,0,5.7,4.7,5.8,5.8v17.2c-0.1,1.3-0.9,5.1-5.9,5.1c-5,0-5.8-3.7-6-4.9V14.6
			C22.9,9.2,27.8,8.5,29,8.5 M28.9,5.5c0,0-9,0.4-9,9.1s0,17.2,0,17.2s0.5,7.8,9,7.8c8.5,0,8.9-8,8.9-8V14.1
			C37.8,14.1,37.3,5.5,28.9,5.5L28.9,5.5z"/>
	</g>
	<g>
		
			<line display="inline" fill="none" stroke="#424242" stroke-width="3" stroke-miterlimit="10" x1="26.9" y1="16.7" x2="21.7" y2="16.7"/>
		
			<line display="inline" fill="none" stroke="#424242" stroke-width="3" stroke-miterlimit="10" x1="26.9" y1="22.5" x2="21.7" y2="22.5"/>
	</g>
	<g>
		
			<line display="inline" fill="none" stroke="#424242" stroke-width="3" stroke-miterlimit="10" x1="36.2" y1="16.7" x2="30.9" y2="16.7"/>
		
			<line display="inline" fill="none" stroke="#424242" stroke-width="3" stroke-miterlimit="10" x1="36.2" y1="22.5" x2="30.9" y2="22.5"/>
	</g>
</g>
<g display="none">
	<path display="inline" fill="none" stroke="#424242" stroke-width="3" stroke-miterlimit="10" d="M8.3,19.9h33.9
		c0,0-0.9,17.4-17.4,17.4S8.3,19.9,8.3,19.9z"/>
	
		<line display="inline" fill="none" stroke="#424242" stroke-width="3" stroke-miterlimit="10" x1="13.7" y1="57" x2="35.7" y2="57"/>
	
		<line display="inline" fill="none" stroke="#424242" stroke-width="3" stroke-miterlimit="10" x1="25.2" y1="57" x2="25.2" y2="37.3"/>
	<path display="inline" fill="none" stroke="#424242" stroke-width="3" stroke-miterlimit="10" d="M35.7,15.7c0-5.1,4.1-9.2,9.2-9.2
		s9.2,4.1,9.2,9.2s-4.1,9.2-9.2,9.2"/>
</g>
<g display="none">
	<path display="inline" fill="none" stroke="#424242" stroke-width="3" stroke-miterlimit="10" d="M24.5,25.5c0,0-6.6-6.2-17.2-6.1
		c0,0-3.1,4.1-3.1,11.8s3.3,11.1,3.3,11.1s8.8-0.1,16.9-5.8C24.5,30.6,24.5,25.5,24.5,25.5z"/>
	<path display="inline" fill="none" stroke="#424242" stroke-width="3" stroke-miterlimit="10" d="M36,25.5c0,0,6.6-6.2,17.2-6.1
		c0,0,3.1,4.1,3.1,11.8s-3.3,11.1-3.3,11.1s-8.8-0.1-16.9-5.8C36,30.6,36,25.5,36,25.5z"/>
	<path display="inline" fill="none" stroke="#424242" stroke-width="3" stroke-miterlimit="10" d="M24.5,25.5c0,0,2.7-2.1,6.2-2.1
		s5.3,2.1,5.3,2.1"/>
	<path display="inline" fill="none" stroke="#424242" stroke-width="3" stroke-miterlimit="10" d="M36,36.4c0,0-2.7,2.1-6.2,2.1
		s-5.3-2.1-5.3-2.1"/>
</g>
<g display="none">
	<g display="inline">
		<path fill="none" stroke="#424242" stroke-width="3" stroke-miterlimit="10" d="M22.9,27.9l8.4,2.6c0,0,20-6.1,24.2-7.6
			s0-3.1,0-3.1l-25.2-8.5L4.4,19.9c0,0-4,1.4-0.7,2.4c3.3,0.9,10,2.8,10,2.8"/>
		<path fill="none" stroke="#424242" stroke-width="3" stroke-miterlimit="10" d="M32.8,19.5l-11,4.2c0,0-4.6,1-4.6,6.1
			s0,25.1,0,25.1"/>
		<line fill="none" stroke="#424242" stroke-width="3" stroke-miterlimit="10" x1="10.3" y1="24.2" x2="10.3" y2="38.7"/>
		<path fill="none" stroke="#424242" stroke-width="3" stroke-miterlimit="10" d="M48.4,24v13.9c0,0-4.3,5.6-18.1,5.6
			c-2.7,0-5.4,0-9.2-0.9"/>
	</g>
	<path display="inline" fill="#FFFFFF" stroke="#424242" stroke-width="3" stroke-miterlimit="10" d="M8.7,38.7c0,0,1,2.2,3.2,2.8
		s1.3,0.4,1.3,0.4l0.2-3.2c0,0-1.3-0.2-1.8-1C11.1,36.9,8.7,38.7,8.7,38.7z"/>
</g>
<g display="none">
	<g display="inline">
		<path fill="none" stroke="#424242" stroke-width="3" stroke-miterlimit="10" d="M55.5,32.4c0,3.8-0.8,7.4-2.4,10.7
			c0,3.5,0,11.4,0,11.4s-7.3,0-10.6,0c-3.6,2-7.8,3.1-12.2,3.1c-13.9,0-25.1-11.2-25.1-25.1S16.5,7.3,30.4,7.3S55.5,18.5,55.5,32.4z
			"/>
		<path fill="none" stroke="#424242" stroke-width="3" stroke-miterlimit="10" d="M24,31.9"/>
	</g>
	<path display="inline" fill="none" stroke="#424242" stroke-width="3" stroke-miterlimit="10" d="M30.9,26.7
		c2.9-5.5,4.6-5.3,7.4-5.3c2.9,0,7.9,3.4,6,9.8c-2,6.6-13.4,15.4-13.4,15.4s-11.5-8.8-13.4-15.4c-1.9-6.4,3.1-9.8,6-9.8
		S28.1,21.2,30.9,26.7L30.9,26.7z"/>
</g>
<g display="none">
	<g display="inline">
		<path fill="#424242" d="M29.4,8.2c7,0,8.7,6.9,8.7,7.9c0,1.5,0,5.5-1.6,6.8l-3,2.5l3.1,2.3c1,0.7,3.4,2.9,4.7,5.3
			c-2.8-0.1-7-0.8-9.8-3.4l-2.1-2l-2,2c-0.1,0.1-3.5,3.3-10,3.5c0.6-1.8,1.9-4.2,4.6-6.1l2.5-1.8l-1.9-2.5c0,0-2-2.8-2-5.6
			C20.6,14.8,22.7,8.2,29.4,8.2 M29.4,5.2C21,5.2,17.6,13,17.6,17c0,4,2.6,7.4,2.6,7.4c-6.5,4.5-6.5,11.4-6.5,11.4
			c1.1,0.1,2.1,0.2,3,0.2c8.3,0,12.6-4.3,12.6-4.3c4,3.7,9.8,4.3,13.1,4.3c1.6,0,2.6-0.1,2.6-0.1c0-5.8-6.7-10.7-6.7-10.7
			c2.5-2.1,2.7-6.1,2.7-9.1C41.1,13,37.8,5.2,29.4,5.2L29.4,5.2z"/>
	</g>
	<g display="inline">
		<path fill="#424242" d="M29.5,39.4c3.8,2.4,8.3,3,11.7,3c0.3,0,0.6,0,0.9,0c-0.1,0.8-0.4,1.9-0.8,3.3c-1.1,3.7-3.8,7-4.7,8.2
			c-1,0.4-3.6,1.3-7.3,1.3c-3.9,0-6.6-1.1-7.4-1.4c-0.6-0.6-2.3-2.4-3.8-5.5c-0.9-1.9-1.3-3.8-1.4-5.3
			C23.2,42.8,27.3,40.9,29.5,39.4 M29.4,35.5c0,0-3.3,4.4-12.7,4.4c-0.9,0-1.9,0-3-0.1c0,0-0.5,4.9,1.8,9.7c2.2,4.5,4.8,6.7,4.8,6.7
			s3.4,1.9,9.1,1.9c5.6,0,9.1-1.8,9.1-1.8s4.1-4.5,5.8-9.8c1.6-5.3,0.8-7.4,0.8-7.4s-1.6,0.3-3.8,0.3C37.8,39.4,32.7,38.7,29.4,35.5
			L29.4,35.5z"/>
	</g>
</g>
<g display="none">
	<g display="inline">
		<g>
			<path fill="#424242" d="M45.4,9.3v38.7H6.8V9.3H45.4 M48.4,6.3H3.8v44.7h44.7V6.3L48.4,6.3z"/>
		</g>
		<polyline fill="none" stroke="#424242" stroke-width="3" stroke-miterlimit="10" points="54.8,11.8 54.8,56.4 10.2,56.4 		"/>
		<polyline fill="none" stroke="#424242" stroke-width="3" stroke-miterlimit="10" points="43.3,40.6 32.5,21.2 26.1,34.1 
			20.2,28.4 12.9,40.6 		"/>
	</g>
	
		<line display="inline" fill="none" stroke="#424242" stroke-width="3" stroke-miterlimit="10" x1="46.6" y1="40.6" x2="5.9" y2="40.6"/>
</g>
<g>
	<g>
		<path fill="none" stroke="#424242" stroke-width="3" stroke-miterlimit="10" d="M17.5,9.5h14.9h18.8c0,0,4.3,0,4.3,4.3v20.5"/>
	</g>
	<g>
		<path fill="none" stroke="#424242" stroke-width="3" stroke-miterlimit="10" d="M42.9,9.5H28H9.2c0,0-4.3,0-4.3,4.3v20.5"/>
	</g>
	<g>
		<path fill="none" stroke="#424242" stroke-width="3" stroke-miterlimit="10" d="M17.5,46.8h14.9h18.8c0,0,4.3,0,4.3-4.3V21.9"/>
	</g>
	<g>
		<path fill="none" stroke="#424242" stroke-width="3" stroke-miterlimit="10" d="M42.9,46.8H28H9.2c0,0-4.3,0-4.3-4.3V21.9"/>
	</g>
	<line fill="none" stroke="#424242" stroke-width="3" stroke-miterlimit="10" x1="55.5" y1="38.1" x2="4.9" y2="38.1"/>
	<line fill="none" stroke="#424242" stroke-width="3" stroke-miterlimit="10" x1="30.2" y1="46.8" x2="30.2" y2="53.1"/>
	<line fill="none" stroke="#424242" stroke-width="3" stroke-miterlimit="10" x1="14.7" y1="53.1" x2="45.4" y2="53.1"/>
</g>
</svg>
