
<svg xmlns="http://www.w3.org/2000/svg" version="1.1" xmlns:xlink="http://www.w3.org/1999/xlink" preserveAspectRatio="none" x="0px" y="0px" width="60px" height="60px" viewBox="0 0 60 60">
<defs>
<path id="Layer0_0_1_STROKES" stroke="#444444" stroke-width="3" stroke-linejoin="miter" stroke-linecap="butt" stroke-miterlimit="10" fill="none" d="
M 4.5 30.3
L 56 30.3 56 7.9
Q 56 4 52.1 4
L 7.9 4
Q 4 4 4 7.9
L 4 36.35
Q 4 40 7.9 40
L 52.1 40
Q 56 40 56 36.35
L 56 30.3
M 18 50
L 43 50"/>
</defs>

<g transform="matrix( 1, 0, 0, 1, 0,0) ">
<use xlink:href="#Layer0_0_1_STROKES"/>
</g>
</svg>
